{
  "uptime": "4 days",
  "ipaddress": "193.62.202.28",
  "kernel": "Linux",
  "hoster": "sanger",
  "operatingsystem": "Debian",
  "path": "/usr/local/sbin:/usr/local/bin:/usr/sbin:/usr/bin:/sbin:/bin:/usr/lib/nagios/plugins",
  "domain": "debian.org",
  "netmask": "255.255.255.248",
  "uptime_hours": 113,
  "rubysitedir": "/usr/local/lib/site_ruby/2.1.0",
  "puppetversion": "3.7.2",
  "lsbdistdescription": "Debian GNU/Linux 8.11 (jessie)",
  "virtual": "physical",
  "is_virtual": "false",
  "lsbminordistrelease": "11",
  "processors": {
    "models": [
      "Dual Core AMD Opteron(tm) Processor 280",
      "Dual Core AMD Opteron(tm) Processor 280",
      "Dual Core AMD Opteron(tm) Processor 280",
      "Dual Core AMD Opteron(tm) Processor 280"
    ],
    "count": 4,
    "physicalcount": 2
  },
  "architecture": "amd64",
  "debarchitecture": "amd64",
  "hardwaremodel": "x86_64",
  "os": {
    "name": "Debian",
    "family": "Debian",
    "release": {
      "major": "8",
      "minor": "11",
      "full": "8.11"
    },
    "lsb": {
      "distcodename": "jessie",
      "distid": "Debian",
      "distdescription": "Debian GNU/Linux 8.11 (jessie)",
      "distrelease": "8.11",
      "majdistrelease": "8",
      "minordistrelease": "11"
    }
  },
  "processor0": "Dual Core AMD Opteron(tm) Processor 280",
  "processor1": "Dual Core AMD Opteron(tm) Processor 280",
  "processor2": "Dual Core AMD Opteron(tm) Processor 280",
  "processor3": "Dual Core AMD Opteron(tm) Processor 280",
  "processorcount": "4",
  "memorysize": "15.58 GB",
  "memoryfree": "6.34 GB",
  "swapsize": "8.00 GB",
  "swapfree": "7.30 GB",
  "swapsize_mb": "8192.00",
  "swapfree_mb": "7477.04",
  "memorysize_mb": "15957.57",
  "memoryfree_mb": "6489.02",
  "osfamily": "Debian",
  "uniqueid": "3ec11cca",
  "lsbmajdistrelease": "8",
  "physicalprocessorcount": "2",
  "hardwareisa": "unknown",
  "kernelrelease": "3.16.0-6-amd64",
  "lsbdistrelease": "8.11",
  "partitions": {
    "sdba1": {
      "size": "162895773",
      "filesystem": "linux_raid_member"
    },
    "sdba2": {
      "size": "123832284",
      "filesystem": "linux_raid_member"
    },
    "sdax1": {
      "size": "19529728",
      "filesystem": "linux_raid_member"
    },
    "sdax2": {
      "size": "123832284",
      "filesystem": "linux_raid_member"
    },
    "sday1": {
      "size": "19529728",
      "filesystem": "linux_raid_member"
    },
    "sday2": {
      "size": "123832284",
      "filesystem": "linux_raid_member"
    },
    "sdaz1": {
      "size": "162895773",
      "filesystem": "linux_raid_member"
    },
    "sdaz2": {
      "size": "123832284",
      "filesystem": "linux_raid_member"
    }
  },
  "network_eth0": "193.62.202.24",
  "network_eth1": "192.168.0.0",
  "network_lo": "127.0.0.0",
  "rubyversion": "2.1.5",
  "hostname": "sibelius",
  "fqdn": "sibelius.debian.org",
  "blockdevice_sda_size": 0,
  "blockdevice_sda_vendor": "AMI",
  "blockdevice_sda_model": "Virtual Floppy",
  "blockdevice_sdb_size": 16002653880320,
  "blockdevice_sdb_vendor": "NEXSAN",
  "blockdevice_sdb_model": "SATABeast2",
  "blockdevice_sdc_size": 16002653880320,
  "blockdevice_sdc_vendor": "NEXSAN",
  "blockdevice_sdc_model": "SATABeast2",
  "blockdevice_sdd_size": 16002653880320,
  "blockdevice_sdd_vendor": "NEXSAN",
  "blockdevice_sdd_model": "SATABeast2",
  "blockdevice_sde_size": 16002653880320,
  "blockdevice_sde_vendor": "NEXSAN",
  "blockdevice_sde_model": "SATABeast2",
  "blockdevice_sdf_size": 16002653880320,
  "blockdevice_sdf_vendor": "NEXSAN",
  "blockdevice_sdf_model": "SATABeast2",
  "blockdevice_sdg_size": 16002653880320,
  "blockdevice_sdg_vendor": "NEXSAN",
  "blockdevice_sdg_model": "SATABeast2",
  "blockdevice_sdh_size": 16002653880320,
  "blockdevice_sdh_vendor": "NEXSAN",
  "blockdevice_sdh_model": "SATABeast2",
  "blockdevice_sdi_size": 16002653880320,
  "blockdevice_sdi_vendor": "NEXSAN",
  "blockdevice_sdi_model": "SATABeast2",
  "blockdevice_sdj_size": 16002653880320,
  "blockdevice_sdj_vendor": "NEXSAN",
  "blockdevice_sdj_model": "SATABeast2",
  "blockdevice_sdk_size": 16002653880320,
  "blockdevice_sdk_vendor": "NEXSAN",
  "blockdevice_sdk_model": "SATABeast2",
  "blockdevice_sdl_size": 16002653880320,
  "blockdevice_sdl_vendor": "NEXSAN",
  "blockdevice_sdl_model": "SATABeast2",
  "blockdevice_sdm_size": 16002653880320,
  "blockdevice_sdm_vendor": "NEXSAN",
  "blockdevice_sdm_model": "SATABeast2",
  "blockdevice_sdn_size": 16002653880320,
  "blockdevice_sdn_vendor": "NEXSAN",
  "blockdevice_sdn_model": "SATABeast2",
  "blockdevice_sdo_size": 16002653880320,
  "blockdevice_sdo_vendor": "NEXSAN",
  "blockdevice_sdo_model": "SATABeast2",
  "blockdevice_sdp_size": 16002653880320,
  "blockdevice_sdp_vendor": "NEXSAN",
  "blockdevice_sdp_model": "SATABeast2",
  "blockdevice_sdq_size": 16002653880320,
  "blockdevice_sdq_vendor": "NEXSAN",
  "blockdevice_sdq_model": "SATABeast2",
  "blockdevice_sdr_size": 8001101496320,
  "blockdevice_sdr_vendor": "NEXSAN",
  "blockdevice_sdr_model": "SATABeast",
  "blockdevice_sds_size": 8001101496320,
  "blockdevice_sds_vendor": "NEXSAN",
  "blockdevice_sds_model": "SATABeast",
  "blockdevice_sdt_size": 8001101496320,
  "blockdevice_sdt_vendor": "NEXSAN",
  "blockdevice_sdt_model": "SATABeast",
  "blockdevice_sdu_size": 8001101496320,
  "blockdevice_sdu_vendor": "NEXSAN",
  "blockdevice_sdu_model": "SATABeast",
  "blockdevice_sdv_size": 8001101496320,
  "blockdevice_sdv_vendor": "NEXSAN",
  "blockdevice_sdv_model": "SATABeast",
  "blockdevice_sdw_size": 8001101496320,
  "blockdevice_sdw_vendor": "NEXSAN",
  "blockdevice_sdw_model": "SATABeast",
  "blockdevice_sdx_size": 8001101496320,
  "blockdevice_sdx_vendor": "NEXSAN",
  "blockdevice_sdx_model": "SATABeast",
  "blockdevice_sdy_size": 8001101496320,
  "blockdevice_sdy_vendor": "NEXSAN",
  "blockdevice_sdy_model": "SATABeast",
  "blockdevice_sr0_size": 1073741312,
  "blockdevice_sr0_vendor": "TEAC",
  "blockdevice_sr0_model": "DV-28SL",
  "blockdevice_sr1_size": 1073741312,
  "blockdevice_sr1_vendor": "AMI",
  "blockdevice_sr1_model": "Virtual CDROM",
  "blockdevice_sdba_size": 146810536448,
  "blockdevice_sdba_vendor": "SEAGATE",
  "blockdevice_sdba_model": "ST914602SSUN146G",
  "blockdevice_sdax_size": 73407865856,
  "blockdevice_sdax_vendor": "FUJITSU",
  "blockdevice_sdax_model": "MAY2073RCSUN72G",
  "blockdevice_sday_size": 73407865856,
  "blockdevice_sday_vendor": "FUJITSU",
  "blockdevice_sday_model": "MAY2073RCSUN72G",
  "blockdevice_sdaz_size": 146810536448,
  "blockdevice_sdaz_vendor": "SEAGATE",
  "blockdevice_sdaz_model": "ST914602SSUN146G",
  "blockdevices": "sda,sdax,sday,sdaz,sdb,sdba,sdc,sdd,sde,sdf,sdg,sdh,sdi,sdj,sdk,sdl,sdm,sdn,sdo,sdp,sdq,sdr,sds,sdt,sdu,sdv,sdw,sdx,sdy,sr0,sr1",
  "macaddress": "00:14:4f:1f:df:ea",
  "facterversion": "2.2.0",
  "system_uptime": {
    "seconds": 410001,
    "hours": 113,
    "days": 4,
    "uptime": "4 days"
  },
  "operatingsystemrelease": "8.11",
  "boardmanufacturer": "Sun Microsystems",
  "boardproductname": "Sun Fire X4200 Server",
  "boardserialnumber": "1762TH1-0605000624",
  "bios_vendor": "American Megatrends Inc.",
  "bios_version": "080010",
  "bios_release_date": "01/31/2006",
  "manufacturer": "Sun Microsystems",
  "productname": "Sun Fire X4200 Server",
  "serialnumber": "0607AN1385",
  "uuid": "00000000-0000-0000-0000-00144F1F9893",
  "type": "Rack Mount Chassis",
  "filesystems": "ext2,ext3,ext4,xfs",
  "ps": "ps -ef",
  "ipaddress6": "2001:630:206:4000:1a1a:0:c13e:ca1c",
  "lsbdistid": "Debian",
  "uptime_days": 4,
  "interfaces": "eth0,eth1,eth2,eth3,lo",
  "ipaddress_eth0": "193.62.202.28",
  "ipaddress6_eth0": "2001:630:206:4000:1a1a:0:c13e:ca1e",
  "macaddress_eth0": "00:14:4f:1f:df:ea",
  "netmask_eth0": "255.255.255.248",
  "mtu_eth0": "1500",
  "ipaddress_eth1": "192.168.0.11",
  "macaddress_eth1": "00:14:4f:1f:df:eb",
  "netmask_eth1": "255.255.255.0",
  "mtu_eth1": "1500",
  "macaddress_eth2": "00:14:4f:1f:df:f0",
  "mtu_eth2": "1500",
  "macaddress_eth3": "00:14:4f:1f:df:f1",
  "mtu_eth3": "1500",
  "ipaddress_lo": "127.0.0.1",
  "netmask_lo": "255.0.0.0",
  "mtu_lo": "65536",
  "augeasversion": "1.2.0",
  "id": "root",
  "operatingsystemmajrelease": "8",
  "selinux": "false",
  "uptime_seconds": 410001,
  "gid": "root",
  "kernelmajversion": "3.16",
  "timezone": "UTC",
  "kernelversion": "3.16.0",
  "lsbdistcodename": "jessie",
  "sshdsakey": "AAAAB3NzaC1kc3MAAACBAIE5Ez6j+IfYkrqanfpWxyCxKpFBBBtJOymMKyOka1KiBxPym4rJaMKjFv3dDzaKGEWUjAXPVeonE4g5dtNcVctwBhFGnE5PibPTKfL5EPVmHAkLNwHZnlxKuqa3uiKI249q7L8bN9CUoCMX7E3DBga15dKV1MJvBY8a+ikZGwlLAAAAFQDo6FO84faNkLhbyKUT8yhzx/H8AQAAAIAZePKvVufjlOkKI0M3edbD0PHkZSDNkh6qKqJOxr09XdAT3IHCwr6T02bmQZ/JXTMaySK7TnBJH5QaQIt+YIYQUgKSyYWUEMldXCIUAE8/56TvOX8ed5+YewC3AvDXAofUejL2LUtOLA8PjAvoee8xsnmLnVqqhL1AAjboXCUkZQAAAIAkKSzHPqIhZNUBhkPgfhB1GdD+84nA4ToqQW8jbRcKqzLlxo4XyBgGai31rjJzTKCXdXwKpDJUmKEiuTLC/eZLZ6ltti/AEYXTJXXpY1zBUpvYw3DUvYA51xJ9PXBRaureZx31f17RiKw3tdGuxcOJwXUAC6UCIuXol7KRVCXnmg==",
  "sshfp_dsa": "SSHFP 2 1 f2e7bddee78fc5090727f95de1174870c30935bc\nSSHFP 2 2 c232881b408465f26edac5f0bfb481658bb32034e45f1487e78f7be1efd89ef9",
  "sshrsakey": "AAAAB3NzaC1yc2EAAAADAQABAAABAQDD4Om7GYw2y+aM/YpN3IHl8j1JVJa0Ec0dp7+C5BcS4OVkyJ0tA9p9bKNkCwMvJR+LyBo4DzYxTTEpqDJUVHWpzjhwEokjUkiZzXfnoH1zK/e5vhWfhTpCSRT6aJN1m8MJKT9l20ZKCnW+UBy8SPa0sh4knVhjPi0STTn09kesUbpf/DGzKI3/eJ8Ft2ASL6tIJ9W6pRv1fzXuAjC9kcTdBYf6tN50BNU5Dxb4WmHHTEammj1nCHIuv14jNAmUUFAIPHeZxwObpm+/8ntlEkeNX6jncnieVesiBCKP+rIgsyuQ6gs159UAXTTUETnsI/F9TCWI4M+bsRWYNAaI/8R3",
  "sshfp_rsa": "SSHFP 1 1 b61f2f81242834fd76df39e01c3da6234e3f198c\nSSHFP 1 2 e394bfdd5e38b0fd50534cc76f85c91582381c25ce0bc04e36c0f7799ca1561a",
  "sshed25519key": "AAAAC3NzaC1lZDI1NTE5AAAAIL4TB13pV1hhz1FUKXDbSz4ePg9YtSh12aSCb3B0MlhA",
  "sshfp_ed25519": "SSHFP 4 1 c6966445c6e66f9b4c4b4a00925456dc04b3b5e7\nSSHFP 4 2 519e7db6e04ae7d812df0e8442f117735025d4c0c74bccd7eb1fc8202fcd7069",
  "puppet_vardir": "/var/lib/puppet",
  "puppet_environmentpath": "",
  "puppet_server": "puppet",
  "systemproductname": "Sun Fire X4200 Server",
  "hw_can_temp_sensors": false,
  "postgresql_key": "ssh-rsa AAAAB3NzaC1yc2EAAAADAQABAAABAQDH4f+v9s9qvOX028ZEiaxxvpj+VOlQ0tT5rtsJ1Q5tp9tZM1KVnM3EIgEmaDE5x4aXgdmfEpAEAl5Uq5Eyv1vh8a7VIvvlaYz6UXqp8fgljAUTKsP1RwB31PxqZ2xXXS/UPY7Ubrcxz+L/Jl0hrWh7PTC1waMZDOXeqPKUdpLOQJi+RmprrbfxGkTtASwpfRl5fCLcNFKA97flN6Sfg01m8kqHVHmoBstQcQzVEWmUSf3USFmJ0bzrOUEL4qi9Mh/7+YTlCfcwWhDHMrtg6dzB0HbE7U1DjcG70ZCVdoPhqAMm+GU011VrC1mY8Tba54CK0oUcAVvoakLYhvpEHNLb postgres@sibelius (20101213)",
  "staticsync_user_exists": false,
  "weblogsync_user_exists": false,
  "buildd_user_exists": false,
  "portforwarder_user_exists": false,
  "onion_tor_service_hostname": "{}",
  "onion_balance_service_hostname": "{}",
  "kvmdomain": false,
  "service_provider": "debian",
  "mounts": "/,/dev/hugepages,/dev/mqueue,/srv/farm-snapshot/farm-2017-0,/srv/farm-snapshot/farm-2017-1,/srv/farm-snapshot/farm-2017-2,/srv/farm-snapshot/farm-2017-3,/srv/farm-snapshot/farm-2017-4,/srv/farm-snapshot/farm-2017-5,/srv/farm-snapshot/farm-2017-6,/srv/farm-snapshot/farm-2017-7,/srv/mirrors,/srv/snapshot.debian.org,/srv/videoteam,/sys/fs/cgroup/blkio,/sys/fs/cgroup/cpu,cpuacct,/sys/fs/cgroup/cpuset,/sys/fs/cgroup/devices,/sys/fs/cgroup/freezer,/sys/fs/cgroup/net_cls,net_prio,/sys/fs/cgroup/perf_event,/sys/fs/cgroup/systemd,/sys/fs/pstore,/sys/kernel/security,/var/lib/postgresql,/var/lib/varnish,/var/log",
  "is_pe": false,
  "mta": "exim4",
  "v4ips": "193.62.202.28,193.62.202.30,192.168.0.11",
  "v6ips": "2001:630:206:4000:1a1a:0:c13e:ca1e,2001:630:206:4000:1a1a:0:c13e:ca1c",
  "staging_http_get": "curl",
  "package_provider": "apt",
  "has_srv_build_trees": false,
  "has_srv_buildd": false,
  "has_etc_ssh_ssh_host_ed25519_key": true,
  "has_srv_mirrors_debian": true,
  "has_srv_mirrors_debian_buildd": false,
  "has_srv_mirrors_debian_debug": true,
  "has_srv_mirrors_debian_ports": true,
  "has_srv_mirrors_debian_security": true,
  "has_srv_mirrors_public_debian": false,
  "has_srv_mirrors_public_debian_buildd": false,
  "has_srv_mirrors_public_debian_debug": false,
  "has_srv_mirrors_public_debian_ports": false,
  "has_srv_mirrors_public_debian_security": false,
  "has_dev_hwrng": true,
  "has_lib_udev_rules_d_60_kpartx_rules": true,
  "has_etc_ssh_ssh_known_hosts": true,
  "root_home": "/root",
  "smartarraycontroller": false,
  "smartarraycontroller_cciss": false,
  "smartarraycontroller_hpsa": false,
  "threewarecontroller": false,
  "megaraid": false,
  "mptraid": true,
  "aacraid": false,
  "swraid": true,
  "keyring_debian_org_mirror": false,
  "brokenhosts": false,
  "apache2": true,
  "clamd": false,
  "exim4": true,
  "postfix": false,
  "postgres": true,
  "postgrey": false,
  "greylistd": false,
  "policydweight": false,
  "spamd": false,
  "php5": false,
  "php5suhosin": false,
  "syslogversion": "3.5",
  "unbound": true,
  "munin_async": true,
  "samhain": true,
  "systemd": true,
  "tor_ge_0_2_9": false,
  "haveged": false,
  "bgpd": false,
  "zebra": false,
  "update_grub": true,
  "haproxy": false
}
